 
****************************************
Report : timing
        -path full
        -delay max
        -max_paths 1
Design : RequestQueue
Version: I-2013.12-SP1
Date   : Sat Oct 13 03:05:34 2018
****************************************

Operating Conditions: slow   Library: NangateOpenCellLibrary_PDKv1_2_v2008_10_slow_nldm
Wire Load Model Mode: top

  Startpoint: current_state_reg[0]
              (rising edge-triggered flip-flop clocked by clock)
  Endpoint: current_state_reg[0]
            (rising edge-triggered flip-flop clocked by clock)
  Path Group: clock
  Path Type: max

  Point                                    Incr       Path
  -----------------------------------------------------------
  clock clock (rise edge)                0.0000     0.0000
  clock network delay (ideal)            0.0000     0.0000
  current_state_reg[0]/CK (DFFS_X2)      0.0000     0.0000 r
  current_state_reg[0]/Q (DFFS_X2)       0.7183     0.7183 f
  U20/ZN (OR2_X1)                        0.2356     0.9538 f
  U19/ZN (OR2_X1)                        0.2324     1.1862 f
  U23/ZN (AOI222_X1)                     0.9546     2.1407 r
  U4/ZN (OAI221_X2)                      0.2927     2.4334 f
  current_state_reg[0]/D (DFFS_X2)       0.0000     2.4334 f
  data arrival time                                 2.4334

  clock clock (rise edge)               10.0000    10.0000
  clock network delay (ideal)            0.0000    10.0000
  clock uncertainty                     -0.0500     9.9500
  current_state_reg[0]/CK (DFFS_X2)      0.0000     9.9500 r
  library setup time                    -0.5361     9.4139
  data required time                                9.4139
  -----------------------------------------------------------
  data required time                                9.4139
  data arrival time                                -2.4334
  -----------------------------------------------------------
  slack (MET)                                       6.9805


1
