 
****************************************
Report : timing
        -path full
        -delay max
        -max_paths 1
Design : counter
Version: K-2015.06-SP1
Date   : Tue Oct  2 14:48:07 2018
****************************************

 * Some/all delay information is back-annotated.

Operating Conditions: slow   Library: NangateOpenCellLibrary_PDKv1_2_v2008_10_slow_nldm
Wire Load Model Mode: top

  Startpoint: count_value_reg_0_
              (rising edge-triggered flip-flop clocked by clock)
  Endpoint: count_value_reg_7_
            (rising edge-triggered flip-flop clocked by clock)
  Path Group: clock
  Path Type: max

  Point                                    Incr       Path
  -----------------------------------------------------------
  clock clock (rise edge)                0.0000     0.0000
  clock network delay (ideal)            0.0000     0.0000
  count_value_reg_0_/CK (DFF_X1)         0.0000     0.0000 r
  count_value_reg_0_/Q (DFF_X1)          0.6572     0.6572 f
  sub_32_U1_B_1/ZN (OR2_X1)              0.3625     1.0197 f
  sub_32_U1_B_2/ZN (OR2_X1)              0.3446     1.3643 f
  sub_32_U1_B_3/ZN (OR2_X1)              0.3432     1.7074 f
  sub_32_U1_B_4/ZN (OR2_X1)              0.3459     2.0533 f
  sub_32_U1_B_5/ZN (OR2_X1)              0.3441     2.3974 f
  sub_32_U1_B_6/ZN (OR2_X1)              0.3288     2.7262 f
  sub_32_U1_A_7/ZN (XNOR2_X2)            0.2945     3.0207 f
  U46/ZN (AOI22_X2)                      0.2328     3.2535 r
  U45/ZN (OAI21_X2)                      0.1607     3.4142 f
  count_value_reg_7_/D (DFF_X1)          0.0000     3.4142 f
  data arrival time                                 3.4142

  clock clock (rise edge)               10.0000    10.0000
  clock network delay (ideal)            0.0000    10.0000
  clock uncertainty                     -0.0500     9.9500
  count_value_reg_7_/CK (DFF_X1)         0.0000     9.9500 r
  library setup time                    -0.3206     9.6294
  data required time                                9.6294
  -----------------------------------------------------------
  data required time                                9.6294
  data arrival time                                -3.4142
  -----------------------------------------------------------
  slack (MET)                                       6.2152


1
