Information: Updating design information... (UID-85)
 
****************************************
Report : timing
        -path full
        -delay max
        -max_paths 1
Design : StatCount
Version: I-2013.12-SP1
Date   : Sat Oct 20 03:35:59 2018
****************************************

Operating Conditions: slow   Library: NangateOpenCellLibrary_PDKv1_2_v2008_10_slow_nldm
Wire Load Model Mode: top

  Startpoint: DataIn1[4] (input port clocked by clock)
  Endpoint: overflow_reg
            (rising edge-triggered flip-flop clocked by clock)
  Path Group: clock
  Path Type: max

  Point                                    Incr       Path
  -----------------------------------------------------------
  clock clock (rise edge)                0.0000     0.0000
  clock network delay (ideal)            0.0000     0.0000
  input external delay                   0.6580     0.6580 f
  DataIn1[4] (in)                        0.0609     0.7189 f
  U22/Z (XOR2_X2)                        0.4028     1.1217 f
  U6/Z (XOR2_X2)                         0.3961     1.5178 f
  U5/ZN (XNOR2_X2)                       0.3132     1.8310 f
  U4/Z (XOR2_X2)                         0.4005     2.2315 f
  U46/ZN (AND2_X4)                       0.2173     2.4488 f
  add_61/U1_1/CO (FA_X1)                 0.4917     2.9405 f
  U71/ZN (NAND2_X2)                      0.2179     3.1584 r
  U72/ZN (INV_X4)                        0.0384     3.1968 f
  U74/ZN (NAND2_X2)                      0.1644     3.3612 r
  U75/ZN (INV_X4)                        0.0384     3.3996 f
  U77/ZN (NAND2_X2)                      0.1644     3.5640 r
  U78/ZN (INV_X4)                        0.0384     3.6024 f
  U80/ZN (NAND2_X2)                      0.1644     3.7668 r
  U81/ZN (INV_X4)                        0.0384     3.8052 f
  U83/ZN (NAND2_X2)                      0.1644     3.9696 r
  U84/ZN (INV_X4)                        0.0351     4.0048 f
  U47/ZN (AND2_X4)                       0.2281     4.2329 f
  U26/ZN (NOR3_X2)                       0.2789     4.5118 r
  U25/ZN (NOR2_X2)                       0.0854     4.5972 f
  overflow_reg/D (DFFR_X2)               0.0000     4.5972 f
  data arrival time                                 4.5972

  clock clock (rise edge)               10.0000    10.0000
  clock network delay (ideal)            0.0000    10.0000
  clock uncertainty                     -0.0500     9.9500
  overflow_reg/CK (DFFR_X2)              0.0000     9.9500 r
  library setup time                    -0.4094     9.5406
  data required time                                9.5406
  -----------------------------------------------------------
  data required time                                9.5406
  data arrival time                                -4.5972
  -----------------------------------------------------------
  slack (MET)                                       4.9434


1
