Information: Updating design information... (UID-85)
 
****************************************
Report : timing
        -path full
        -delay max
        -max_paths 1
Design : eight_downc
Version: I-2013.12-SP1
Date   : Tue Sep 18 19:28:37 2018
****************************************

Operating Conditions: slow   Library: NangateOpenCellLibrary_PDKv1_2_v2008_10_slow_nldm
Wire Load Model Mode: top

  Startpoint: count_value_reg[0]
              (rising edge-triggered flip-flop clocked by clock)
  Endpoint: count_value_reg[7]
            (rising edge-triggered flip-flop clocked by clock)
  Path Group: clock
  Path Type: max

  Point                                    Incr       Path
  -----------------------------------------------------------
  clock clock (rise edge)                0.0000     0.0000
  clock network delay (ideal)            0.0000     0.0000
  count_value_reg[0]/CK (DFF_X1)         0.0000     0.0000 r
  count_value_reg[0]/Q (DFF_X1)          0.6419     0.6419 f
  sub_26/U1_B_1/ZN (OR2_X1)              0.3508     0.9927 f
  sub_26/U1_B_2/ZN (OR2_X1)              0.3331     1.3258 f
  sub_26/U1_B_3/ZN (OR2_X1)              0.3331     1.6589 f
  sub_26/U1_B_4/ZN (OR2_X1)              0.3331     1.9920 f
  sub_26/U1_B_5/ZN (OR2_X1)              0.3331     2.3252 f
  sub_26/U1_B_6/ZN (OR2_X1)              0.3225     2.6477 f
  sub_26/U1_A_7/ZN (XNOR2_X2)            0.2903     2.9380 f
  U46/ZN (AOI22_X2)                      0.2205     3.1585 r
  U45/ZN (OAI21_X2)                      0.1556     3.3141 f
  count_value_reg[7]/D (DFF_X1)          0.0000     3.3141 f
  data arrival time                                 3.3141

  clock clock (rise edge)               10.0000    10.0000
  clock network delay (ideal)            0.0000    10.0000
  clock uncertainty                     -0.0500     9.9500
  count_value_reg[7]/CK (DFF_X1)         0.0000     9.9500 r
  library setup time                    -0.3194     9.6306
  data required time                                9.6306
  -----------------------------------------------------------
  data required time                                9.6306
  data arrival time                                -3.3141
  -----------------------------------------------------------
  slack (MET)                                       6.3165


1
