Information: Updating design information... (UID-85)
 
****************************************
Report : timing
        -path full
        -delay min
        -max_paths 1
Design : eight_downc_95
Version: I-2013.12-SP1
Date   : Mon Sep 17 02:06:17 2018
****************************************

Operating Conditions: fast   Library: NangateOpenCellLibrary_PDKv1_2_v2008_10_fast_nldm
Wire Load Model Mode: top

  Startpoint: count_value_reg[0]
              (rising edge-triggered flip-flop clocked by clock)
  Endpoint: count_value_reg[0]
            (rising edge-triggered flip-flop clocked by clock)
  Path Group: clock
  Path Type: min

  Point                                    Incr       Path
  -----------------------------------------------------------
  clock clock (rise edge)                0.0000     0.0000
  clock network delay (ideal)            0.0000     0.0000
  count_value_reg[0]/CK (DFF_X2)         0.0000     0.0000 r
  count_value_reg[0]/Q (DFF_X2)          0.0609     0.0609 r
  U51/ZN (OAI221_X1)                     0.0187     0.0796 f
  count_value_reg[0]/D (DFF_X2)          0.0000     0.0796 f
  data arrival time                                 0.0796

  clock clock (rise edge)                0.0000     0.0000
  clock network delay (ideal)            0.0000     0.0000
  clock uncertainty                      0.0500     0.0500
  count_value_reg[0]/CK (DFF_X2)         0.0000     0.0500 r
  library hold time                     -0.0006     0.0494
  data required time                                0.0494
  -----------------------------------------------------------
  data required time                                0.0494
  data arrival time                                -0.0796
  -----------------------------------------------------------
  slack (MET)                                       0.0303


1
