 
****************************************
Report : timing
        -path full
        -delay max
        -max_paths 1
Design : eight_downc_95
Version: I-2013.12-SP1
Date   : Mon Sep 17 02:06:17 2018
****************************************

Operating Conditions: slow   Library: NangateOpenCellLibrary_PDKv1_2_v2008_10_slow_nldm
Wire Load Model Mode: top

  Startpoint: count_value_reg[0]
              (rising edge-triggered flip-flop clocked by clock)
  Endpoint: count_value_reg[7]
            (rising edge-triggered flip-flop clocked by clock)
  Path Group: clock
  Path Type: max

  Point                                    Incr       Path
  -----------------------------------------------------------
  clock clock (rise edge)                0.0000     0.0000
  clock network delay (ideal)            0.0000     0.0000
  count_value_reg[0]/CK (DFF_X2)         0.0000     0.0000 r
  count_value_reg[0]/Q (DFF_X2)          0.6086     0.6086 f
  sub_26/U1_B_1/ZN (OR2_X2)              0.3351     0.9437 f
  U49/ZN (NOR2_X1)                       0.1787     1.1224 r
  U39/ZN (AND2_X4)                       0.1729     1.2953 r
  U38/ZN (NAND2_X2)                      0.0614     1.3568 f
  sub_26/U1_B_5/ZN (OR2_X1)              0.3244     1.6812 f
  sub_26/U1_B_6/ZN (OR2_X2)              0.3206     2.0018 f
  sub_26/U1_A_7/ZN (XNOR2_X2)            0.2927     2.2945 f
  U37/ZN (AOI22_X4)                      0.1897     2.4842 r
  U45/ZN (OAI21_X2)                      0.1488     2.6331 f
  count_value_reg[7]/D (DFF_X2)          0.0000     2.6331 f
  data arrival time                                 2.6331

  clock clock (rise edge)                3.0000     3.0000
  clock network delay (ideal)            0.0000     3.0000
  clock uncertainty                     -0.0500     2.9500
  count_value_reg[7]/CK (DFF_X2)         0.0000     2.9500 r
  library setup time                    -0.3110     2.6390
  data required time                                2.6390
  -----------------------------------------------------------
  data required time                                2.6390
  data arrival time                                -2.6331
  -----------------------------------------------------------
  slack (MET)                                       0.0059


1
