 
****************************************
Report : timing
        -path full
        -delay max
        -max_paths 1
Design : fsm_2
Version: I-2013.12-SP1
Date   : Mon Oct  1 23:22:00 2018
****************************************

Operating Conditions: slow   Library: NangateOpenCellLibrary_PDKv1_2_v2008_10_slow_nldm
Wire Load Model Mode: top

  Startpoint: current_state_reg
              (rising edge-triggered flip-flop clocked by clock)
  Endpoint: outcell_reg[4]
            (rising edge-triggered flip-flop clocked by clock)
  Path Group: clock
  Path Type: max

  Point                                    Incr       Path
  -----------------------------------------------------------
  clock clock (rise edge)                0.0000     0.0000
  clock network delay (ideal)            0.0000     0.0000
  current_state_reg/CK (DFFR_X2)         0.0000     0.0000 r
  current_state_reg/Q (DFFR_X2)          0.9153     0.9153 r
  U37/ZN (AND2_X4)                       0.4733     1.3886 r
  U36/Z (XOR2_X1)                        0.4802     1.8688 r
  outcell_reg[4]/D (DFF_X2)              0.0000     1.8688 r
  data arrival time                                 1.8688

  clock clock (rise edge)               10.0000    10.0000
  clock network delay (ideal)            0.0000    10.0000
  clock uncertainty                     -0.0500     9.9500
  outcell_reg[4]/CK (DFF_X2)             0.0000     9.9500 r
  library setup time                    -0.2628     9.6872
  data required time                                9.6872
  -----------------------------------------------------------
  data required time                                9.6872
  data arrival time                                -1.8688
  -----------------------------------------------------------
  slack (MET)                                       7.8184


1
